…
  # assume independence, i.e, there is no difference
  hypothesize(null = "independence") %>%
  
  # generate 1000 reps, of type "permute"
  generate(reps = 1000, type = "permute") %>%
  
  # calculate statistic of difference, namely "diff in means"
  calculate(stat = "diff in means", order = c("yes", "no"))

null_dist

## Response: weight (numeric)
## Explanatory: physical_3plus (factor)
## Null Hypothesis: independence
## # A tibble: 1,000 × 2
##    replicate   stat
##        <int>  <dbl>
##  1         1 -0.402
##  2         2  0.453
##  3         3  0.233
##  4         4 -0.419
##  5         5  0.150
##  6         6  0.783
##  7         7  0.448
##  8         8 -0.344
##  9         9  0.347
## 10        10  0.777
## # … with 990 more rows
…
